{
  "filterCode": "article",
  "currentPage": 2,
  "totalPages": 4,
  "perPage": 24,
  "totalItems": 84,
  "filters": [
    {
      "code": "",
      "label": "Все",
      "totalPages": 5,
      "href": "/blog"
    },
    {
      "code": "life",
      "label": "Наша жизнь",
      "totalPages": 1,
      "href": "/blog/life"
    },
    {
      "code": "case",
      "label": "Кейсы",
      "totalPages": 1,
      "href": "/blog/case"
    },
    {
      "code": "article",
      "label": "Статьи",
      "totalPages": 4,
      "href": "/blog/article"
    },
    {
      "code": "podcast",
      "label": "Подкаст",
      "totalPages": 1,
      "href": "/blog/podcast"
    }
  ],
  "posts": [
    {
      "href": "/blog/article/kompleksnyj-seo-audit-sajta-zachem-kogda-i-iz-chego-sostoit/",
      "description": "Комплексный SEO-аудит сайта: зачем, когда и из чего состоит",
      "subtitle": "Успешное SEO-продвижение: почему аудит сайта — необходимость, а не опция.",
      "tags": [
        "Статьи"
      ],
      "tagCodes": [
        "article"
      ],
      "tagCodesNorm": [
        "article"
      ],
      "linkClass": "white-text",
      "isResource": true,
      "publishDate": "2024-12-20T08:00:00.000000Z",
      "media": {
        "kind": "picture",
        "image": "/_sa/img/blog/Mg3PVvezisXKgUba4CiQdztzYD58HBKyCWMVbcfm.webp"
      }
    },
    {
      "href": "/blog/article/seo-optimizatsiya-internet-magazina/",
      "description": "SEO-оптимизация интернет-магазина",
      "subtitle": "На что обратить внимание при настройке SEO для интернет-магазина.",
      "tags": [
        "Статьи"
      ],
      "tagCodes": [
        "article"
      ],
      "tagCodesNorm": [
        "article"
      ],
      "linkClass": "white-text",
      "isResource": true,
      "publishDate": "2024-12-11T08:11:11.000000Z",
      "media": {
        "kind": "picture",
        "image": "/_sa/img/blog/IVipzkWJpI1qytG4Sv3dALRVrlKfOC2lVwXH0T2q.webp"
      }
    },
    {
      "href": "/blog/article/serenity-kak-stroim-uspeshnyj-marketing-ot-sotrudnika-do-klienta/",
      "description": "Serenity: Как строим успешный маркетинг — от сотрудника до клиента",
      "subtitle": "7 выпуск, «Мышеловка» — подкаст, в котором мы общаемся с топовыми предпринимателями и маркетологами о том, как делать крутой маркетинг.",
      "tags": [
        "Подкаст"
      ],
      "tagCodes": [
        "article",
        "podcast"
      ],
      "tagCodesNorm": [
        "article",
        "podcast"
      ],
      "linkClass": "white-text",
      "isResource": true,
      "publishDate": "2024-12-11T07:00:00.000000Z",
      "media": {
        "kind": "picture",
        "image": "/_sa/img/blog/3IHrfdwO12TCeLIT21fsrOGzw0uR2NgxYETYiyzf.webp"
      }
    },
    {
      "href": "/blog/article/sozdanie-kontenta-dlya-sajta-bukvy-zvuki-i-tsveta/",
      "description": "Создание контента для сайта: буквы, звуки и цвета",
      "subtitle": "Все про процесс разработки контента для сайта рассказывает наш копирайтер — Илья Полторацкий.",
      "tags": [
        "Статьи"
      ],
      "tagCodes": [
        "article"
      ],
      "tagCodesNorm": [
        "article"
      ],
      "linkClass": "white-text",
      "isResource": true,
      "publishDate": "2024-11-25T07:00:00.000000Z",
      "media": {
        "kind": "picture",
        "image": "/_sa/img/blog/wUyg5TFiLIL0oZ6XyVreGwcy45LNejWWY0y2CGUk.webp"
      }
    },
    {
      "href": "/blog/article/rabotaem-nad-uluchsheniem-chitaemosti-teksta-na-sajte/",
      "description": "Работаем над улучшением читаемости текста на сайте",
      "subtitle": "Как создавать качественный контент, который будут видеть и люди, и поисковые системы.",
      "tags": [
        "Статьи"
      ],
      "tagCodes": [
        "article"
      ],
      "tagCodesNorm": [
        "article"
      ],
      "linkClass": "white-text",
      "isResource": true,
      "publishDate": "2024-11-11T07:00:00.000000Z",
      "media": {
        "kind": "picture",
        "image": "/_sa/img/blog/VOrXJOhwZVB1cQqcLWn4JvalilRZMYZSt9Uv49Pb.webp"
      }
    },
    {
      "href": "/blog/article/prodvizhenie-brenda-v-telegram/",
      "description": "Продвижение и развитие бренда в Telegram",
      "subtitle": "Рассказываем, как разработать стратегию и привлечь аудиторию в телеграм-канал.",
      "tags": [
        "Статьи"
      ],
      "tagCodes": [
        "article"
      ],
      "tagCodesNorm": [
        "article"
      ],
      "linkClass": "white-text",
      "isResource": true,
      "publishDate": "2024-10-30T07:00:00.000000Z",
      "media": {
        "kind": "picture",
        "image": "/_sa/img/blog/j5WZN26AZK96bjdB9UUKEeMH3rb2veqEGlTYE0WK.webp"
      }
    },
    {
      "href": "/blog/article/prodvizhenie-molodyh-sajtov-poshagovyj-plan-razvitiya-novogo-sajta/",
      "description": "Продвижение молодых сайтов: пошаговый план развития нового сайта",
      "subtitle": "Как продвигать молодой сайт, чтобы не попасть под фильтры поисковых систем. Разбираем ключевые шаги для успешной индексации, высоких позиций и быстрого роста.",
      "tags": [
        "Статьи"
      ],
      "tagCodes": [
        "article"
      ],
      "tagCodesNorm": [
        "article"
      ],
      "linkClass": "white-text",
      "isResource": true,
      "publishDate": "2024-10-16T07:00:00.000000Z",
      "media": {
        "kind": "picture",
        "image": "/_sa/img/blog/y9FxAYOmklatOiMgXiQZfXPyQj3M8MpUen6mBX2h.webp"
      }
    },
    {
      "href": "/blog/article/rebrending-redizajn-i-restajling/",
      "description": "Ребрендинг, редизайн и рестайлинг",
      "subtitle": "Что делать бизнесу, если захотелось обновление фирменного стиля?",
      "tags": [
        "Статьи"
      ],
      "tagCodes": [
        "article"
      ],
      "tagCodesNorm": [
        "article"
      ],
      "linkClass": "white-text",
      "isResource": true,
      "publishDate": "2024-09-30T07:00:00.000000Z",
      "media": {
        "kind": "picture",
        "image": "/_sa/img/blog/IT3MrGLr0nEUJrqagghdTzBVd9if7vfKsWMOStM5.webp"
      }
    },
    {
      "href": "/blog/article/kak-vybrat-kanaly-dlya-reklamy-v-telegram/",
      "description": "Как выбрать каналы для рекламы в Telegram",
      "subtitle": "С лидером PR-направления разбираемся, как запускать посевы в Telegram, чтобы не потерять бюджет.",
      "tags": [
        "Статьи"
      ],
      "tagCodes": [
        "article"
      ],
      "tagCodesNorm": [
        "article"
      ],
      "linkClass": "dark-text",
      "isResource": true,
      "publishDate": "2024-09-29T07:00:00.000000Z",
      "media": {
        "kind": "picture",
        "image": "/_sa/img/blog/nM2qigeO46uv6gwjyIilVWRWeR8sf03Nu3tHyFUY.webp"
      }
    },
    {
      "href": "/blog/article/flowwow-nishevye-marketplejsy-protiv-gigantov/",
      "description": "Flowwow: нишевые маркетплейсы против гигантов",
      "subtitle": "5 выпуск, «Мышеловка» — подкаст, в котором мы общаемся с топовыми предпринимателями и маркетологами о том, как делать крутой маркетинг.",
      "tags": [
        "Подкаст"
      ],
      "tagCodes": [
        "article",
        "podcast"
      ],
      "tagCodesNorm": [
        "article",
        "podcast"
      ],
      "linkClass": "white-text",
      "isResource": true,
      "publishDate": "2024-08-08T07:00:00.000000Z",
      "media": {
        "kind": "picture",
        "image": "/_sa/img/blog/1uRoMZmmwNnyFRoAcnMRklGDm4C8w2FuZDAd4P6s.webp"
      }
    },
    {
      "href": "/blog/article/etapy-seo-prodvizheniya-sajta/",
      "description": "Этапы SEO-продвижения сайта",
      "subtitle": "Из чего состоит продвижение сайта: ключевые этапы и методы для успеха в SEO.",
      "tags": [
        "Статьи"
      ],
      "tagCodes": [
        "article"
      ],
      "tagCodesNorm": [
        "article"
      ],
      "linkClass": "white-text",
      "isResource": true,
      "publishDate": "2024-08-01T07:00:00.000000Z",
      "media": {
        "kind": "picture",
        "image": "/_sa/img/blog/lvXTsf67IptFAbuOK0ZnKCEa8CVNotAiIDOnuNEy.webp"
      }
    },
    {
      "href": "/blog/article/prodzhekt-menedzher-svyazuyushhaya-energiya-proekta/",
      "description": "Проджект-менеджер — связующая энергия проекта",
      "subtitle": "Настя Попова рассказывает, как собрать команду мечты.",
      "tags": [
        "Статьи",
        "Наша жизнь"
      ],
      "tagCodes": [
        "statyi",
        "nashsaizn"
      ],
      "tagCodesNorm": [
        "article",
        "life"
      ],
      "linkClass": "white-text",
      "isResource": true,
      "publishDate": "2024-07-29T04:07:55.000000Z",
      "media": {
        "kind": "picture",
        "image": "/_sa/img/blog/M99VkdyMXQIKJX0CFY8yi3GMX991Txoo8tm87zRH.webp"
      }
    },
    {
      "href": "/blog/article/kross-marketing-populyarnost-na-peresechenii-usilij/",
      "description": "Кросс-маркетинг: популярность на пересечении усилий",
      "subtitle": "Своя стратегия хорошо, а совместная — лучше. Рассказываем, как найти компанию-партнера.",
      "tags": [
        "Статьи"
      ],
      "tagCodes": [
        "article"
      ],
      "tagCodesNorm": [
        "article"
      ],
      "linkClass": "white-text",
      "isResource": true,
      "publishDate": "2024-05-23T07:00:00.000000Z",
      "media": {
        "kind": "picture",
        "image": "/_sa/img/blog/xWHkMBZuxBd6uSqfF8I2aqAZSmKTjboLLFXrl0Hn.webp"
      }
    },
    {
      "href": "/blog/article/seo-meditsinskih-sajtov/",
      "description": "SEO медицинских сайтов",
      "subtitle": "Стандарты продвижения медицинских услуг и алгоритм проработки своего сайта.",
      "tags": [
        "Статьи"
      ],
      "tagCodes": [
        "article"
      ],
      "tagCodesNorm": [
        "article"
      ],
      "linkClass": "dark-text",
      "isResource": true,
      "publishDate": "2024-02-01T07:00:00.000000Z",
      "media": {
        "kind": "picture",
        "image": "/_sa/img/blog/ssFPMUTbksRTGtMS59Pr2R2oY0Kr2fJZrcNNllbE.webp"
      }
    },
    {
      "href": "/blog/article/effektivnoe-prodvizhenie-kak-rabotaet-strategiya/",
      "description": "Эффективное продвижение: как работает стратегия",
      "subtitle": "И какие преимущества предлагает бизнесу.",
      "tags": [
        "Статьи"
      ],
      "tagCodes": [
        "article"
      ],
      "tagCodesNorm": [
        "article"
      ],
      "linkClass": "dark-text",
      "isResource": true,
      "publishDate": "2023-12-22T07:00:00.000000Z",
      "media": {
        "kind": "picture",
        "image": "/_sa/img/blog/YT7NPKwl84fJGF4YjCiDYjX9uqT77JNvRaVoBYDn.webp"
      }
    },
    {
      "href": "/blog/article/slogany-kak-zapomnitsya-auditorii/",
      "description": "Слоганы — как запомниться аудитории",
      "subtitle": "Рассказали, как разрабатываем слоганы, в которые влюбляются.",
      "tags": [
        "Статьи"
      ],
      "tagCodes": [
        "article"
      ],
      "tagCodesNorm": [
        "article"
      ],
      "linkClass": "white-text",
      "isResource": true,
      "publishDate": "2023-10-26T07:00:00.000000Z",
      "media": {
        "kind": "picture",
        "image": "/_sa/img/blog/wcY51evm7xmkT9g71icbK3ddWQBzv60pvIUoaljK.webp"
      }
    },
    {
      "href": "/blog/article/prodakshn-stoit-li-ono-togo/",
      "description": "Продакшн: стоит ли оно того?",
      "subtitle": "Разбираемся, какие работы входят в понятие «продакшн» и сколько это стоит.",
      "tags": [
        "Статьи",
        "Кейсы"
      ],
      "tagCodes": [
        "statyi",
        "keisy"
      ],
      "tagCodesNorm": [
        "article",
        "case"
      ],
      "linkClass": "white-text",
      "isResource": true,
      "publishDate": "2023-09-26T07:10:10.000000Z",
      "media": {
        "kind": "picture",
        "image": "/_sa/img/blog/Mti8ntS3wtY0DjuKbVrQQg3oSZ5rHEOFWkoh0GwV.webp"
      }
    },
    {
      "href": "/blog/article/20-sposobov-otsenit-effektivnost-kontent-marketinga/",
      "description": "32 способа оценить эффективность контент-маркетинга",
      "subtitle": "Рассказываем, какие метрики стоит учитывать, чтобы фиксировать количественный результат работы контента.",
      "tags": [
        "Статьи"
      ],
      "tagCodes": [
        "statyi"
      ],
      "tagCodesNorm": [
        "article"
      ],
      "linkClass": "white-text",
      "isResource": true,
      "publishDate": "2023-09-12T07:10:10.000000Z",
      "media": {
        "kind": "picture",
        "image": "/_sa/img/blog/iWG9APvQoXEYyyeozg3lHndSPZzAso8WDodvMQmd.webp"
      }
    },
    {
      "href": "/blog/article/proektirovanie-internet-magazinov-i-marketplejsov-marketingovyj-podhod/",
      "description": "Проектирование интернет-магазинов и маркетплейсов: маркетинговый подход",
      "subtitle": "Этапы проектирования интернет-магазина: исследования, разработка, аналитика.",
      "tags": [
        "Статьи"
      ],
      "tagCodes": [
        "article"
      ],
      "tagCodesNorm": [
        "article"
      ],
      "linkClass": "white-text",
      "isResource": false,
      "publishDate": "2023-08-11T12:00:00.000Z",
      "media": {
        "kind": "picture",
        "image": "/_sa/img/blog/proektirovanie-internet-magazinov-i-marketplejsov-marketingovyj-podhod/Oblozhka.png"
      }
    },
    {
      "href": "/blog/article/motivatsiya-ili-sopernichestvo/",
      "description": "Мотивация или соперничество?",
      "subtitle": "Как 20 раз в день слышать «нет» и не опускать руки.",
      "tags": [
        "Статьи",
        "Наша жизнь"
      ],
      "tagCodes": [
        "statyi",
        "nashsaizn"
      ],
      "tagCodesNorm": [
        "article",
        "life"
      ],
      "linkClass": "white-text",
      "isResource": true,
      "publishDate": "2023-07-14T08:12:45.000000Z",
      "media": {
        "kind": "picture",
        "image": "/_sa/img/blog/9oFGQ99Mkoo3zZZyzaHbWrElQGgSlnr6lzsSMV9e.webp"
      }
    },
    {
      "href": "/blog/article/kak-pravilno-pisat-seo-teksty/",
      "description": "Как правильно писать SEO-тексты",
      "subtitle": "Рассказываем, на что нужно обратить внимание при формировании и написании текста, чтобы он обязательно попал в топ выдачи поисковиков.",
      "tags": [
        "Статьи"
      ],
      "tagCodes": [
        "article"
      ],
      "tagCodesNorm": [
        "article"
      ],
      "linkClass": "white-text",
      "isResource": true,
      "publishDate": "2023-01-25T08:00:00.000000Z",
      "media": {
        "kind": "picture",
        "image": "/_sa/img/blog/dX3x4ZYwfE3JisKSY2A0IO8fxEbiPzRGIEcjRc4m.webp"
      }
    },
    {
      "href": "/blog/article/sistemy-ranzhirovaniya-google-poiska/",
      "description": "Системы ранжирования Google-поиска",
      "subtitle": "Системы ранжирования Google-поиска",
      "tags": [
        "Статьи"
      ],
      "tagCodes": [
        "article"
      ],
      "tagCodesNorm": [
        "article"
      ],
      "linkClass": "white-text",
      "isResource": false,
      "publishDate": "2022-12-26T12:00:00.000Z",
      "media": {
        "kind": "picture",
        "image": "/_sa/img/blog/sistemy-ranzhirovaniya-google-poiska/milad-fakurian-UYgrVfIhBec-unsplash.jpg"
      }
    },
    {
      "href": "https://vc.ru/marketing/495512-perevesti-nelzya-adaptirovat-ili-pochemu-kontent-prosto-perevedennyi-na-drugoi-yazyk-ne-rabotaet",
      "description": "«Перевести нельзя адаптировать»",
      "subtitle": "Или почему контент, просто переведенный на другой язык, не работает.",
      "tags": [
        "Статьи"
      ],
      "tagCodes": [
        "statyi"
      ],
      "tagCodesNorm": [
        "article"
      ],
      "linkClass": "white-text",
      "isResource": true,
      "publishDate": "2022-09-14T07:10:10.000000Z",
      "media": {
        "kind": "picture",
        "image": "/_sa/img/blog/1jX9u2xjUxeWdype49GVhnhlmyNbDWUWigbSn8X7.webp"
      }
    },
    {
      "href": "/blog/article/sajt-na-konstruktore-protiv-polnotsennogo-sajta-kto-kogo/",
      "description": "Сайт на конструкторе против полноценного сайта. Кто кого?",
      "subtitle": "Поможем разобраться, что и когда лучше подойдет.",
      "tags": [
        "Статьи"
      ],
      "tagCodes": [
        "statyi"
      ],
      "tagCodesNorm": [
        "article"
      ],
      "linkClass": "dark-text",
      "isResource": true,
      "publishDate": "2022-08-30T05:08:08.000000Z",
      "media": {
        "kind": "picture",
        "image": "/_sa/img/blog/CXrZv1eEn2uQohiWxWaFoRp5SOhU8yOiafh7TphS.webp"
      }
    }
  ]
}