{
  "filterCode": "brending",
  "currentPage": 1,
  "totalPages": 2,
  "perPage": 24,
  "totalItems": 39,
  "filters": [
    {
      "code": "",
      "label": "Все",
      "totalPages": 3,
      "href": "/case/all"
    },
    {
      "code": "pr",
      "label": "Продвижение",
      "totalPages": 2,
      "href": "/case/all/category/pr"
    },
    {
      "code": "brending",
      "label": "Брендинг",
      "totalPages": 2,
      "href": "/case/all/category/brending"
    },
    {
      "code": "sites",
      "label": "Сайты",
      "totalPages": 2,
      "href": "/case/all/category/sites"
    },
    {
      "code": "strategiya",
      "label": "Стратегия",
      "totalPages": 1,
      "href": "/case/all/category/strategiya"
    }
  ],
  "cases": [
    {
      "href": "https://serenity.agency/case/all/minisklad",
      "description": "Создали новый фирменный стиль и увеличили количество обращений на 500%",
      "tags": [
        "Продвижение",
        "Брендинг",
        "Стратегия"
      ],
      "tagCodes": [
        "pr",
        "brending",
        "strategiya"
      ],
      "linkClass": "dark-text",
      "isResource": false,
      "media": {
        "kind": "picture",
        "image": "/_sa/img/case/JdKeaOWg6ErhKqPicV92KRbf7U75W0mdSuUWt6jp.webp"
      }
    },
    {
      "href": "https://serenity.agency/case/all/grandmed",
      "description": "Комплексное продвижение медицинского холдинга",
      "tags": [
        "Продвижение",
        "Брендинг",
        "Стратегия"
      ],
      "tagCodes": [
        "pr",
        "brending",
        "strategiya"
      ],
      "linkClass": "white-text",
      "isResource": false,
      "media": {
        "kind": "picture",
        "image": "/_sa/img/case/AndTNWYK9X0q8jK1uKSkDrOF4PAEKyfO91k2aqI5.webp"
      }
    },
    {
      "href": "https://serenity.agency/case/all/sytnie-ugodia",
      "description": "Комплексный маркетинг для производителя мяса",
      "tags": [
        "Брендинг",
        "Сайты",
        "Стратегия",
        "Продвижение"
      ],
      "tagCodes": [
        "brending",
        "sites",
        "strategiya",
        "pr"
      ],
      "linkClass": "white-text",
      "isResource": false,
      "media": {
        "kind": "picture",
        "image": "/_sa/img/case/Cyu9NZfssUe4ZsPOZ4TL93kVfwXlrc8E9hweu3ea.webp"
      }
    },
    {
      "href": "https://serenity.agency/case/all/solvik",
      "description": "Стратегия, нейминг, стиль и сайт для автосервиса",
      "tags": [
        "Брендинг",
        "Сайты",
        "Стратегия"
      ],
      "tagCodes": [
        "brending",
        "sites",
        "strategiya"
      ],
      "linkClass": "dark-text",
      "isResource": false,
      "media": {
        "kind": "picture",
        "image": "/_sa/img/case/ENs29q17mYvrc2hz44CMY8TNHjlkxWpWodADk9Eb.webp"
      }
    },
    {
      "href": "https://serenity.agency/case/evrostroj",
      "description": "На 30% увеличили число конверсий для «Евростроя»",
      "tags": [
        "Стратегия",
        "Брендинг",
        "Продвижение"
      ],
      "tagCodes": [
        "strategiya",
        "brending",
        "pr"
      ],
      "linkClass": "white-text",
      "isResource": false,
      "media": {
        "kind": "video",
        "poster": "/_sa/img/case/eEn5z5K1VqnFurjwT6vHFhSyHwKolEzUF41JawC9.jpg",
        "videoSrc": "/_sa/img/case/nDqkUf1hDrQnNiY9gPZNrfEY3Vwgcw86y3AlcK51.mp4"
      }
    },
    {
      "href": "https://serenity.agency/case/all/schaeferfliesen",
      "description": "Айдентика и сайт для дистрибьютера испанской плитки в Германии",
      "tags": [
        "Брендинг",
        "Сайты",
        "Стратегия"
      ],
      "tagCodes": [
        "brending",
        "sites",
        "strategiya"
      ],
      "linkClass": "white-text",
      "isResource": false,
      "media": {
        "kind": "picture",
        "image": "/_sa/img/case/566isMIGIE8z0ns5izuRXaI4ayl7LXqlJ09xCtnG.webp"
      }
    },
    {
      "href": "https://serenity.agency/case/all/alfakabel",
      "description": "Стратегия и фирменный стиль для российского завода",
      "tags": [
        "Брендинг",
        "Стратегия"
      ],
      "tagCodes": [
        "brending",
        "strategiya"
      ],
      "linkClass": "dark-text",
      "isResource": false,
      "media": {
        "kind": "picture",
        "image": "/_sa/img/case/X6YOpGtu2BPzPh4tOjFvDqj8KUKACkNZqvZUnbhd.webp"
      }
    },
    {
      "href": "https://serenity.agency/case/all/commcloud",
      "description": "Продвижение нового IT-продукта на российском рынке",
      "tags": [
        "Продвижение",
        "Брендинг",
        "Стратегия"
      ],
      "tagCodes": [
        "pr",
        "brending",
        "strategiya"
      ],
      "linkClass": "white-text",
      "isResource": false,
      "media": {
        "kind": "picture",
        "image": "/_sa/img/case/J6m3rdo35hk51oGHPk5ZvwLRTnXWCebvPi9qNYGs.png"
      }
    },
    {
      "href": "https://serenity.agency/case/vomoloko",
      "description": "Обновили образ бренда и привлекли покупателей для дистрибьютера «Во!Молоко»",
      "tags": [
        "Продвижение",
        "Брендинг",
        "Сайт"
      ],
      "tagCodes": [
        "pr",
        "brending",
        "sites"
      ],
      "linkClass": "dark-text",
      "isResource": true,
      "media": {
        "kind": "picture",
        "image": "/_sa/img/case/ixkjBrB1pCELGeNMCtA8BgK78AYiofKaJhJch2zK.jpg"
      }
    },
    {
      "href": "https://serenity.agency/case/all/skladno-internet-magazin-mebeli",
      "description": "В 6 раз окупили вложения в маркетинг для «Складно»",
      "tags": [
        "Продвижение",
        "Брендинг",
        "Сайт",
        "Стратегия"
      ],
      "tagCodes": [
        "pr",
        "brending",
        "sites",
        "strategiya"
      ],
      "linkClass": "white-text",
      "isResource": false,
      "media": {
        "kind": "picture",
        "image": "/_sa/img/case/qaCLQ6fqiMYmxsozvWrmZGiALhEHrhOemSYToCyR.jpg"
      }
    },
    {
      "href": "https://serenity.agency/case/riderra",
      "description": "Фирменный стиль и сайт для международной трансферной компании Riderra",
      "tags": [
        "Стратегия",
        "Брендинг",
        "Сайт"
      ],
      "tagCodes": [
        "strategiya",
        "brending",
        "sites"
      ],
      "linkClass": "white-text",
      "isResource": false,
      "media": {
        "kind": "video",
        "poster": "/_sa/img/case/omenJLrtzpcr02LEG0JYGCJQ1PYvsTHFqS29l7Tf.jpg",
        "videoSrc": "/_sa/img/case/YLaTiBuwJ0QqqSddxBKdY67Gp5gx6Hbwo20di76j.mp4"
      }
    },
    {
      "href": "https://serenity.agency/case/kaury",
      "description": "Бренд-стратегия для производителя резиновых сапог KAURY",
      "tags": [
        "Брендинг",
        "Сайт",
        "Стратегия"
      ],
      "tagCodes": [
        "brending",
        "sites",
        "strategiya"
      ],
      "linkClass": "white-text",
      "isResource": false,
      "media": {
        "kind": "picture",
        "image": "/_sa/img/case/ZgG9T2kx4Ytdec3tzZ9WNRL05ejKctQORIImpms8.jpg"
      }
    },
    {
      "href": "https://www.behance.net/gallery/189821135/Vershe-Brand-Identity",
      "description": "Нейминг и фирменный стиль для клиники современной косметологии",
      "tags": [
        "Брендинг"
      ],
      "tagCodes": [
        "brending"
      ],
      "linkClass": "white-text",
      "isResource": true,
      "media": {
        "kind": "picture",
        "image": "/_sa/img/case/UuXRgjN2uXvOOVSvoQaYZy4GCrdliYYcxQSKpHLc.png"
      }
    },
    {
      "href": "https://serenity.agency/case/toofli",
      "description": "Привлекли 10 000 подписчиков в Instagram для бренда Toofli",
      "tags": [
        "Продвижение",
        "Брендинг"
      ],
      "tagCodes": [
        "pr",
        "brending"
      ],
      "linkClass": "dark-text",
      "isResource": false,
      "media": {
        "kind": "picture",
        "image": "/_sa/img/case/5J2OiJoXlgzbSyYrW0PxCN9xvymrgsIcjDs7Nu9z.jpg"
      }
    },
    {
      "href": "https://www.behance.net/gallery/130002443/The-Start-Brand-Identity",
      "description": "Брендинг для сервиса по организации мероприятий в Гонконге",
      "tags": [
        "Брендинг"
      ],
      "tagCodes": [
        "brending"
      ],
      "linkClass": "dark-text",
      "isResource": true,
      "media": {
        "kind": "picture",
        "image": "/_sa/img/case/1bSFsD5i81i9VqaqRTHTfxOiWwknvQBhwxgpozLZ.jpg"
      }
    },
    {
      "href": "https://serenity.agency/case/360flat",
      "description": "Бренд-стратегия и сайт для агентства недвижимости",
      "tags": [
        "Брендинг",
        "Сайт"
      ],
      "tagCodes": [
        "brending",
        "sites"
      ],
      "linkClass": "white-text",
      "isResource": false,
      "media": {
        "kind": "picture",
        "image": "/_sa/img/case/6tgUlCXw9GYFJKLap2A7PXdotuSKa5prNUpuwnX9.jpg"
      }
    },
    {
      "href": "https://serenity.agency/case/aquanika",
      "description": "Обновление эко-бренда Акваника в соцсетях",
      "tags": [
        "Брендинг"
      ],
      "tagCodes": [
        "brending"
      ],
      "linkClass": "white-text",
      "isResource": false,
      "media": {
        "kind": "picture",
        "image": "/_sa/img/case/ipBFndC9AdAHMtWFeAA1jF2KhbKUMMCkZD1d2XFw.jpg"
      }
    },
    {
      "href": "https://www.behance.net/gallery/149412307/vrand-identity-Osnova",
      "description": "Нейминг, стиль, упаковка и фотопродакшн для бренда косметики Osnova",
      "tags": [
        "Брендинг"
      ],
      "tagCodes": [
        "brending"
      ],
      "linkClass": "white-text",
      "isResource": true,
      "media": {
        "kind": "picture",
        "image": "/_sa/img/case/qqywTx4bdU4fAGD26LToCb2S4JZSXpvgASiW44nq.jpg"
      }
    },
    {
      "href": "https://serenity.agency/case/bez-ramok",
      "description": "Создали пакет франшизы с нуля для арт-центра «Без рамок»",
      "tags": [
        "Стратегия",
        "Брендинг",
        "Сайт"
      ],
      "tagCodes": [
        "strategiya",
        "brending",
        "sites"
      ],
      "linkClass": "white-text",
      "isResource": false,
      "media": {
        "kind": "picture",
        "image": "/_sa/img/case/M3ONz5TGOBWVPsqlK5vUawaC6xb5EQROaR9feKp2.jpg"
      }
    },
    {
      "href": "https://www.behance.net/gallery/176670567/Brand-identity-for-Banded-Bodies",
      "description": "Брендинг и сайт для косметики Banded Bodies",
      "tags": [
        "Сайт",
        "Брендинг"
      ],
      "tagCodes": [
        "sites",
        "brending"
      ],
      "linkClass": "white-text",
      "isResource": true,
      "media": {
        "kind": "video",
        "poster": "/_sa/img/case/vIPEujjDwnUUk1fIB2sNEpOImN6jaNOiQgRrWcTu.jpg",
        "videoSrc": "/_sa/img/case/Z5DRfhD6mMz1PaLGG8KQ6cYsQV7PawPLPdgm1ugC.mp4"
      }
    },
    {
      "href": "https://www.behance.net/gallery/182050605/Brand-identity-Trading-Desk",
      "description": "Айдентика для сообщества предпринимателей и трейдеров",
      "tags": [
        "Брендинг"
      ],
      "tagCodes": [
        "brending"
      ],
      "linkClass": "white-text",
      "isResource": true,
      "media": {
        "kind": "picture",
        "image": "/_sa/img/case/mIUTeTsZ6qJ1uDyFK20iR7mugfbSgGwp0z99ofZA.jpg"
      }
    },
    {
      "href": "https://serenity.agency/case/klyuchevskoe-2",
      "description": "Упаковали бренд молочных продуктов «Ключевское»",
      "tags": [
        "Брендинг"
      ],
      "tagCodes": [
        "brending"
      ],
      "linkClass": "white-text",
      "isResource": false,
      "media": {
        "kind": "picture",
        "image": "/_sa/img/case/uUUtNgG5FMLRaTgpfHOA2HJThPNqilljZ5inKV6h.jpg"
      }
    },
    {
      "href": "https://serenity.agency/case/jistory",
      "description": "Стратегия, нейминг и стиль для сети магазинов одежды Jistory",
      "tags": [
        "Стратегия",
        "Брендинг"
      ],
      "tagCodes": [
        "strategiya",
        "brending"
      ],
      "linkClass": "dark-text",
      "isResource": false,
      "media": {
        "kind": "picture",
        "image": "/_sa/img/case/w8ugkLNrVqCQvEcea9SkYVuPRXEJmToFRzFrgfkI.jpg"
      }
    },
    {
      "href": "https://www.behance.net/gallery/149426781/Brand-idetity-website-for-ERP-system-AXLE",
      "description": "Нейминг, стиль и сайт для ERP-системы AXLE",
      "tags": [
        "Сайт",
        "Брендинг"
      ],
      "tagCodes": [
        "sites",
        "brending"
      ],
      "linkClass": "white-text",
      "isResource": true,
      "media": {
        "kind": "picture",
        "image": "/_sa/img/case/nLmH0QMDkMTl35L702U8N29cSV59cSqeLfPLM2rY.jpg"
      }
    }
  ]
}