{
  "filterCode": "",
  "currentPage": 5,
  "totalPages": 5,
  "perPage": 24,
  "totalItems": 105,
  "filters": [
    {
      "code": "",
      "label": "Все",
      "totalPages": 5,
      "href": "/blog"
    },
    {
      "code": "life",
      "label": "Наша жизнь",
      "totalPages": 1,
      "href": "/blog/life"
    },
    {
      "code": "case",
      "label": "Кейсы",
      "totalPages": 1,
      "href": "/blog/case"
    },
    {
      "code": "article",
      "label": "Статьи",
      "totalPages": 4,
      "href": "/blog/article"
    },
    {
      "code": "podcast",
      "label": "Подкаст",
      "totalPages": 1,
      "href": "/blog/podcast"
    }
  ],
  "posts": [
    {
      "href": "/blog/article/tsifrovoj-brending/",
      "description": "Цифровой брендинг",
      "subtitle": "Создание бренда стало возможно даже для маленьких компаний с небольшими бюджетами и малой целевой аудиторией. Делюсь мыслями, как можно этого достигнуть.",
      "tags": [
        "Статьи"
      ],
      "tagCodes": [
        "article"
      ],
      "tagCodesNorm": [
        "article"
      ],
      "linkClass": "dark-text",
      "isResource": false,
      "publishDate": "2016-11-16T12:00:00.000Z",
      "media": {
        "kind": "picture",
        "image": "/_sa/img/blog/tsifrovoj-brending/al-x-407225-unsplash-1.jpg"
      },
      "cardModifier": "case--card-wood-header"
    },
    {
      "href": "/blog/life/1-mesto-za-prodvizhenie-digitale-007/",
      "description": "1 место за продвижение Digitale 007",
      "subtitle": "Сообщество электронных компаний Петербурга наградило нас за многоканальную кампанию Digitale 007",
      "tags": [
        "Наша жизнь"
      ],
      "tagCodes": [
        "life"
      ],
      "tagCodesNorm": [
        "life"
      ],
      "linkClass": "dark-text",
      "isResource": false,
      "publishDate": "2015-12-15T12:00:00.000Z",
      "media": {
        "kind": "picture",
        "image": "/_sa/img/blog/life__1-mesto-za-prodvizhenie-digitale-007/rawpixel-648580-unsplash-e1548059350946.jpg"
      }
    },
    {
      "href": "/blog/article/dlinnaya-voronka/",
      "description": "Длинная воронка",
      "subtitle": "Прогрессивные компании считают две воронки. Первая — от посещения до обращения (компетенция маркетолога), вторая — от лида до продажи (компетенция руководителя продаж, а теперь и маркетолога).",
      "tags": [
        "Статьи"
      ],
      "tagCodes": [
        "article"
      ],
      "tagCodesNorm": [
        "article"
      ],
      "linkClass": "white-text",
      "isResource": false,
      "publishDate": "2015-09-06T12:00:00.000Z",
      "media": {
        "kind": "picture",
        "image": "/_sa/img/blog/dlinnaya-voronka/rawpixel-760069-unsplash.jpg"
      }
    },
    {
      "href": "/blog/life/sedmye-po-seo-v-peterburge/",
      "description": "Седьмые по SEO в Петербурге",
      "subtitle": "По оценкам клиентов SEO-услуг.",
      "tags": [
        "Наша жизнь"
      ],
      "tagCodes": [
        "life"
      ],
      "tagCodesNorm": [
        "life"
      ],
      "linkClass": "white-text",
      "isResource": false,
      "publishDate": "2015-07-16T12:00:00.000Z",
      "media": {
        "kind": "picture",
        "image": "/_sa/img/blog/life__sedmye-po-seo-v-peterburge/clem-onojeghuo-217352-unsplash.jpg"
      }
    },
    {
      "href": "/blog/life/8-mesto-sredi-seo-agentstv-v-sankt-peterburge/",
      "description": "8 место среди SEO-агентств в Санкт-Петербурге",
      "subtitle": "Согласно рейтингу Ruward.",
      "tags": [
        "Наша жизнь"
      ],
      "tagCodes": [
        "life"
      ],
      "tagCodesNorm": [
        "life"
      ],
      "linkClass": "white-text",
      "isResource": false,
      "publishDate": "2015-06-04T12:00:00.000Z",
      "media": {
        "kind": "picture",
        "image": "/_sa/img/blog/life__8-mesto-sredi-seo-agentstv-v-sankt-peterburge/anthony-martino-335460-unsplash.jpg"
      }
    },
    {
      "href": "/blog/article/strategiya-digital-marketinga-5-shagov-chtoby-proverit-vashu-strategiyu/",
      "description": "Стратегия digital-маркетинга, 5 шагов, чтобы проверить вашу стратегию",
      "subtitle": "Оригинал этой статьи вы можете найти в блоге The Next Web.",
      "tags": [
        "Статьи"
      ],
      "tagCodes": [
        "article"
      ],
      "tagCodesNorm": [
        "article"
      ],
      "linkClass": "white-text",
      "isResource": false,
      "publishDate": "2015-04-01T12:00:00.000Z",
      "media": {
        "kind": "picture",
        "image": "/_sa/img/blog/strategiya-digital-marketinga-5-shagov-chtoby-proverit-vashu-strategiyu/sergiu-valena-468074-unsplash.jpg"
      }
    },
    {
      "href": "/blog/life/5-mesto-sredi-dizajn-studij-v-sankt-peterburge/",
      "description": "5 место среди дизайн-студий в Санкт-Петербурге",
      "subtitle": "Tagline оценила лидеров среди дизайн-студий в digital-среде.",
      "tags": [
        "Наша жизнь"
      ],
      "tagCodes": [
        "life"
      ],
      "tagCodesNorm": [
        "life"
      ],
      "linkClass": "dark-text",
      "isResource": false,
      "publishDate": "2014-12-10T12:00:00.000Z",
      "media": {
        "kind": "picture",
        "image": "/_sa/img/blog/life__5-mesto-sredi-dizajn-studij-v-sankt-peterburge/kelli-tungay-324329-unsplash.jpg"
      },
      "cardModifier": "case--card-wood-header case--card-media-bottom"
    },
    {
      "href": "/blog/article/marketolog-proektov/",
      "description": "Маркетолог проектов",
      "subtitle": "Кто такой, зачем нужен и за что отвечает.",
      "tags": [
        "Статьи"
      ],
      "tagCodes": [
        "article"
      ],
      "tagCodesNorm": [
        "article"
      ],
      "linkClass": "dark-text",
      "isResource": false,
      "publishDate": "2014-08-15T12:00:00.000Z",
      "media": {
        "kind": "picture",
        "image": "/_sa/img/blog/marketolog-proektov/joanna-kosinska-538711-unsplash.jpg"
      },
      "cardModifier": "case--card-wood-header case--card-media-bottom"
    },
    {
      "href": "/blog/article/litso-brenda-zadachi-razrabotki-firmennogo-stilya/",
      "description": "Лицо бренда: задачи разработки фирменного стиля",
      "subtitle": "Рассказываем о задачах фирменного стиля: от логотипа до корпоративной культуры и коммуникаций. Узнайте, как айдентика выделяет бренд и формирует доверие.",
      "tags": [
        "Статьи"
      ],
      "tagCodes": [
        "article"
      ],
      "tagCodesNorm": [
        "article"
      ],
      "linkClass": "white-text",
      "isResource": false,
      "media": {
        "kind": "picture",
        "image": "/_sa/img/blog/litso-brenda-zadachi-razrabotki-firmennogo-stilya/luke-jones-38Tm9xZPxIw-unsplash.png"
      }
    }
  ]
}