{
  "filterCode": "",
  "currentPage": 2,
  "totalPages": 3,
  "perPage": 24,
  "totalItems": 64,
  "filters": [
    {
      "code": "",
      "label": "Все",
      "totalPages": 3,
      "href": "/blog"
    },
    {
      "code": "life",
      "label": "Наша жизнь",
      "totalPages": 1,
      "href": "/blog/life"
    },
    {
      "code": "case",
      "label": "Кейсы",
      "totalPages": 1,
      "href": "/blog/case"
    },
    {
      "code": "article",
      "label": "Статьи",
      "totalPages": 3,
      "href": "/blog/article"
    },
    {
      "code": "podcast",
      "label": "Подкаст",
      "totalPages": 1,
      "href": "/blog/podcast"
    }
  ],
  "posts": [
    {
      "href": "/blog/article/kompleksnyj-seo-audit-sajta-zachem-kogda-i-iz-chego-sostoit/",
      "description": "Комплексный SEO-аудит сайта: зачем, когда и из чего состоит",
      "subtitle": "Успешное SEO-продвижение: почему аудит сайта — необходимость, а не опция.",
      "tags": [
        "Статьи"
      ],
      "tagCodes": [
        "article"
      ],
      "tagCodesNorm": [
        "article"
      ],
      "linkClass": "white-text",
      "isResource": true,
      "media": {
        "kind": "picture",
        "image": "/_sa/img/blog/Mg3PVvezisXKgUba4CiQdztzYD58HBKyCWMVbcfm.webp"
      }
    },
    {
      "href": "/blog/article/seo-optimizatsiya-internet-magazina/",
      "description": "SEO-оптимизация интернет-магазина",
      "subtitle": "На что обратить внимание при настройке SEO для интернет-магазина.",
      "tags": [
        "Статьи"
      ],
      "tagCodes": [
        "article"
      ],
      "tagCodesNorm": [
        "article"
      ],
      "linkClass": "white-text",
      "isResource": true,
      "media": {
        "kind": "picture",
        "image": "/_sa/img/blog/IVipzkWJpI1qytG4Sv3dALRVrlKfOC2lVwXH0T2q.webp"
      }
    },
    {
      "href": "/blog/article/serenity-kak-stroim-uspeshnyj-marketing-ot-sotrudnika-do-klienta/",
      "description": "Serenity: Как строим успешный маркетинг — от сотрудника до клиента",
      "subtitle": "7 выпуск, «Мышеловка» — подкаст, в котором мы общаемся с топовыми предпринимателями и маркетологами о том, как делать крутой маркетинг.",
      "tags": [
        "Подкаст"
      ],
      "tagCodes": [
        "article",
        "podcast"
      ],
      "tagCodesNorm": [
        "article",
        "podcast"
      ],
      "linkClass": "white-text",
      "isResource": true,
      "media": {
        "kind": "picture",
        "image": "/_sa/img/blog/3IHrfdwO12TCeLIT21fsrOGzw0uR2NgxYETYiyzf.webp"
      }
    },
    {
      "href": "/blog/article/sozdanie-kontenta-dlya-sajta-bukvy-zvuki-i-tsveta/",
      "description": "Создание контента для сайта: буквы, звуки и цвета",
      "subtitle": "Все про процесс разработки контента для сайта рассказывает наш копирайтер — Илья Полторацкий.",
      "tags": [
        "Статьи"
      ],
      "tagCodes": [
        "article"
      ],
      "tagCodesNorm": [
        "article"
      ],
      "linkClass": "white-text",
      "isResource": true,
      "media": {
        "kind": "picture",
        "image": "/_sa/img/blog/wUyg5TFiLIL0oZ6XyVreGwcy45LNejWWY0y2CGUk.webp"
      }
    },
    {
      "href": "/blog/article/rabotaem-nad-uluchsheniem-chitaemosti-teksta-na-sajte/",
      "description": "Работаем над улучшением читаемости текста на сайте",
      "subtitle": "Как создавать качественный контент, который будут видеть и люди, и поисковые системы.",
      "tags": [
        "Статьи"
      ],
      "tagCodes": [
        "article"
      ],
      "tagCodesNorm": [
        "article"
      ],
      "linkClass": "white-text",
      "isResource": true,
      "media": {
        "kind": "picture",
        "image": "/_sa/img/blog/VOrXJOhwZVB1cQqcLWn4JvalilRZMYZSt9Uv49Pb.webp"
      }
    },
    {
      "href": "/blog/article/prodvizhenie-brenda-v-telegram/",
      "description": "Продвижение и развитие бренда в Telegram",
      "subtitle": "Рассказываем, как разработать стратегию и привлечь аудиторию в телеграм-канал.",
      "tags": [
        "Статьи"
      ],
      "tagCodes": [
        "article"
      ],
      "tagCodesNorm": [
        "article"
      ],
      "linkClass": "white-text",
      "isResource": true,
      "media": {
        "kind": "picture",
        "image": "/_sa/img/blog/j5WZN26AZK96bjdB9UUKEeMH3rb2veqEGlTYE0WK.webp"
      }
    },
    {
      "href": "/blog/article/prodvizhenie-molodyh-sajtov-poshagovyj-plan-razvitiya-novogo-sajta/",
      "description": "Продвижение молодых сайтов: пошаговый план развития нового сайта",
      "subtitle": "Как продвигать молодой сайт, чтобы не попасть под фильтры поисковых систем. Разбираем ключевые шаги для успешной индексации, высоких позиций и быстрого роста.",
      "tags": [
        "Статьи"
      ],
      "tagCodes": [
        "article"
      ],
      "tagCodesNorm": [
        "article"
      ],
      "linkClass": "white-text",
      "isResource": true,
      "media": {
        "kind": "picture",
        "image": "/_sa/img/blog/y9FxAYOmklatOiMgXiQZfXPyQj3M8MpUen6mBX2h.webp"
      }
    },
    {
      "href": "/blog/article/rebrending-redizajn-i-restajling/",
      "description": "Ребрендинг, редизайн и рестайлинг",
      "subtitle": "Что делать бизнесу, если захотелось обновление фирменного стиля?",
      "tags": [
        "Статьи"
      ],
      "tagCodes": [
        "article"
      ],
      "tagCodesNorm": [
        "article"
      ],
      "linkClass": "white-text",
      "isResource": true,
      "media": {
        "kind": "picture",
        "image": "/_sa/img/blog/IT3MrGLr0nEUJrqagghdTzBVd9if7vfKsWMOStM5.webp"
      }
    },
    {
      "href": "/blog/article/kak-vybrat-kanaly-dlya-reklamy-v-telegram/",
      "description": "Как выбрать каналы для рекламы в Telegram",
      "subtitle": "С лидером PR-направления разбираемся, как запускать посевы в Telegram, чтобы не потерять бюджет.",
      "tags": [
        "Статьи"
      ],
      "tagCodes": [
        "article"
      ],
      "tagCodesNorm": [
        "article"
      ],
      "linkClass": "dark-text",
      "isResource": true,
      "media": {
        "kind": "picture",
        "image": "/_sa/img/blog/nM2qigeO46uv6gwjyIilVWRWeR8sf03Nu3tHyFUY.webp"
      }
    },
    {
      "href": "/blog/case/neiming-kak-sozdayutsya-silnye-brendi/",
      "description": "Нейминг: как создаются сильные бренды",
      "subtitle": "Наш креативный копирайтер Илья Полторацкий рассказал, как выглядит процесс нейминга на открытых креативных встречах, и описал методы разработки нового имени.",
      "tags": [
        "Кейсы"
      ],
      "tagCodes": [
        "case"
      ],
      "tagCodesNorm": [
        "case"
      ],
      "linkClass": "white-text",
      "isResource": true,
      "media": {
        "kind": "picture",
        "image": "/_sa/img/blog/omsd7rIxegBTRB7YRFzTMENsGad2YdfLr6ByqrkM.webp"
      }
    },
    {
      "href": "/blog/article/flowwow-nishevye-marketplejsy-protiv-gigantov/",
      "description": "Flowwow: нишевые маркетплейсы против гигантов",
      "subtitle": "5 выпуск, «Мышеловка» — подкаст, в котором мы общаемся с топовыми предпринимателями и маркетологами о том, как делать крутой маркетинг.",
      "tags": [
        "Подкаст"
      ],
      "tagCodes": [
        "article",
        "podcast"
      ],
      "tagCodesNorm": [
        "article",
        "podcast"
      ],
      "linkClass": "white-text",
      "isResource": true,
      "media": {
        "kind": "picture",
        "image": "/_sa/img/blog/1uRoMZmmwNnyFRoAcnMRklGDm4C8w2FuZDAd4P6s.webp"
      }
    },
    {
      "href": "/blog/article/etapy-seo-prodvizheniya-sajta/",
      "description": "Этапы SEO-продвижения сайта",
      "subtitle": "Из чего состоит продвижение сайта: ключевые этапы и методы для успеха в SEO.",
      "tags": [
        "Статьи"
      ],
      "tagCodes": [
        "article"
      ],
      "tagCodesNorm": [
        "article"
      ],
      "linkClass": "white-text",
      "isResource": true,
      "media": {
        "kind": "picture",
        "image": "/_sa/img/blog/lvXTsf67IptFAbuOK0ZnKCEa8CVNotAiIDOnuNEy.webp"
      }
    },
    {
      "href": "/blog/article/prodzhekt-menedzher-svyazuyushhaya-energiya-proekta/",
      "description": "Проджект-менеджер — связующая энергия проекта",
      "subtitle": "Настя Попова рассказывает, как собрать команду мечты.",
      "tags": [
        "Статьи",
        "Наша жизнь"
      ],
      "tagCodes": [
        "statyi",
        "nashsaizn"
      ],
      "tagCodesNorm": [
        "article",
        "life"
      ],
      "linkClass": "white-text",
      "isResource": true,
      "media": {
        "kind": "picture",
        "image": "/_sa/img/blog/M99VkdyMXQIKJX0CFY8yi3GMX991Txoo8tm87zRH.webp"
      }
    },
    {
      "href": "/blog/article/kross-marketing-populyarnost-na-peresechenii-usilij/",
      "description": "Кросс-маркетинг: популярность на пересечении усилий",
      "subtitle": "Своя стратегия хорошо, а совместная — лучше. Рассказываем, как найти компанию-партнера.",
      "tags": [
        "Статьи"
      ],
      "tagCodes": [
        "article"
      ],
      "tagCodesNorm": [
        "article"
      ],
      "linkClass": "white-text",
      "isResource": true,
      "media": {
        "kind": "picture",
        "image": "/_sa/img/blog/xWHkMBZuxBd6uSqfF8I2aqAZSmKTjboLLFXrl0Hn.webp"
      }
    },
    {
      "href": "/blog/article/seo-meditsinskih-sajtov/",
      "description": "SEO медицинских сайтов",
      "subtitle": "Стандарты продвижения медицинских услуг и алгоритм проработки своего сайта.",
      "tags": [
        "Статьи"
      ],
      "tagCodes": [
        "article"
      ],
      "tagCodesNorm": [
        "article"
      ],
      "linkClass": "dark-text",
      "isResource": true,
      "media": {
        "kind": "picture",
        "image": "/_sa/img/blog/ssFPMUTbksRTGtMS59Pr2R2oY0Kr2fJZrcNNllbE.webp"
      }
    },
    {
      "href": "/blog/life/trendy-kontekstnoj-reklamy-2024-chem-nas-udivil-yandeks-direkt/",
      "description": "Тренды контекстной рекламы 2024: чем нас удивил Яндекс Директ",
      "subtitle": "Рассматриваем новинки Яндекс Директа и какие результаты они способны приносить на фоне существующих рекламных кампаний.",
      "tags": [
        "Наша жизнь"
      ],
      "tagCodes": [
        "life"
      ],
      "tagCodesNorm": [
        "life"
      ],
      "linkClass": "white-text",
      "isResource": true,
      "media": {
        "kind": "picture",
        "image": "/_sa/img/blog/09HNu8CgoRfKl5IU9ZI2DgYESksIzb3D6r9HO5jt.webp"
      }
    },
    {
      "href": "/blog/article/effektivnoe-prodvizhenie-kak-rabotaet-strategiya/",
      "description": "Эффективное продвижение: как работает стратегия",
      "subtitle": "И какие преимущества предлагает бизнесу.",
      "tags": [
        "Статьи"
      ],
      "tagCodes": [
        "article"
      ],
      "tagCodesNorm": [
        "article"
      ],
      "linkClass": "dark-text",
      "isResource": true,
      "media": {
        "kind": "picture",
        "image": "/_sa/img/blog/YT7NPKwl84fJGF4YjCiDYjX9uqT77JNvRaVoBYDn.webp"
      }
    },
    {
      "href": "/blog/article/slogany-kak-zapomnitsya-auditorii/",
      "description": "Слоганы — как запомниться аудитории",
      "subtitle": "Рассказали, как разрабатываем слоганы, в которые влюбляются.",
      "tags": [
        "Статьи"
      ],
      "tagCodes": [
        "article"
      ],
      "tagCodesNorm": [
        "article"
      ],
      "linkClass": "white-text",
      "isResource": true,
      "media": {
        "kind": "picture",
        "image": "/_sa/img/blog/wcY51evm7xmkT9g71icbK3ddWQBzv60pvIUoaljK.webp"
      }
    },
    {
      "href": "/blog/article/prodakshn-stoit-li-ono-togo/",
      "description": "Продакшн: стоит ли оно того?",
      "subtitle": "Разбираемся, какие работы входят в понятие «продакшн» и сколько это стоит.",
      "tags": [
        "Статьи",
        "Кейсы"
      ],
      "tagCodes": [
        "statyi",
        "keisy"
      ],
      "tagCodesNorm": [
        "article",
        "case"
      ],
      "linkClass": "white-text",
      "isResource": true,
      "media": {
        "kind": "picture",
        "image": "/_sa/img/blog/Mti8ntS3wtY0DjuKbVrQQg3oSZ5rHEOFWkoh0GwV.webp"
      }
    },
    {
      "href": "/blog/article/20-sposobov-otsenit-effektivnost-kontent-marketinga/",
      "description": "32 способа оценить эффективность контент-маркетинга",
      "subtitle": "Рассказываем, какие метрики стоит учитывать, чтобы фиксировать количественный результат работы контента.",
      "tags": [
        "Статьи"
      ],
      "tagCodes": [
        "statyi"
      ],
      "tagCodesNorm": [
        "article"
      ],
      "linkClass": "white-text",
      "isResource": true,
      "media": {
        "kind": "picture",
        "image": "/_sa/img/blog/iWG9APvQoXEYyyeozg3lHndSPZzAso8WDodvMQmd.webp"
      }
    },
    {
      "href": "/blog/article/motivatsiya-ili-sopernichestvo/",
      "description": "Мотивация или соперничество?",
      "subtitle": "Как 20 раз в день слышать «нет» и не опускать руки.",
      "tags": [
        "Статьи",
        "Наша жизнь"
      ],
      "tagCodes": [
        "statyi",
        "nashsaizn"
      ],
      "tagCodesNorm": [
        "article",
        "life"
      ],
      "linkClass": "white-text",
      "isResource": true,
      "media": {
        "kind": "picture",
        "image": "/_sa/img/blog/9oFGQ99Mkoo3zZZyzaHbWrElQGgSlnr6lzsSMV9e.webp"
      }
    },
    {
      "href": "https://serenity.mave.digital/ep-2",
      "description": "Какие 10% в маркетинге приносят 90% результатов?",
      "subtitle": "Игорь Манн в подкасте «Мышеловка».",
      "tags": [
        "Подкаст"
      ],
      "tagCodes": [
        "podcast"
      ],
      "tagCodesNorm": [
        "podcast"
      ],
      "linkClass": "white-text",
      "isResource": true,
      "media": {
        "kind": "picture",
        "image": "/_sa/img/blog/Gq8atSD9iDUptVPxHxvc8wkn1EN7AWNbS3gDJLJE.webp"
      }
    },
    {
      "href": "/blog/article/kak-pravilno-pisat-seo-teksty/",
      "description": "Как правильно писать SEO-тексты",
      "subtitle": "Рассказываем, на что нужно обратить внимание при формировании и написании текста, чтобы он обязательно попал в топ выдачи поисковиков.",
      "tags": [
        "Статьи"
      ],
      "tagCodes": [
        "article"
      ],
      "tagCodesNorm": [
        "article"
      ],
      "linkClass": "white-text",
      "isResource": true,
      "media": {
        "kind": "picture",
        "image": "/_sa/img/blog/dX3x4ZYwfE3JisKSY2A0IO8fxEbiPzRGIEcjRc4m.webp"
      }
    },
    {
      "href": "https://serenity.mave.digital/ep-1",
      "description": "Важность команды и культуры в кризисное время",
      "subtitle": "Обсуждают Сергей Прусс и Екатерина Русакова в подкасте «Мышеловка».",
      "tags": [
        "Наша жизнь"
      ],
      "tagCodes": [
        "nashsaizn"
      ],
      "tagCodesNorm": [
        "life"
      ],
      "linkClass": "white-text",
      "isResource": true,
      "media": {
        "kind": "picture",
        "image": "/_sa/img/blog/YoYXpJWBYJ71k3IjLUyeTePzKaBWw52elifUbdVt.webp"
      }
    }
  ]
}