{
  "filterCode": "pr",
  "currentPage": 2,
  "totalPages": 2,
  "perPage": 24,
  "totalItems": 25,
  "filters": [
    {
      "code": "",
      "label": "Все",
      "totalPages": 3,
      "href": "/case/all"
    },
    {
      "code": "pr",
      "label": "Продвижение",
      "totalPages": 2,
      "href": "/case/all/category/pr"
    },
    {
      "code": "brending",
      "label": "Брендинг",
      "totalPages": 2,
      "href": "/case/all/category/brending"
    },
    {
      "code": "sites",
      "label": "Сайты",
      "totalPages": 2,
      "href": "/case/all/category/sites"
    },
    {
      "code": "strategiya",
      "label": "Стратегия",
      "totalPages": 1,
      "href": "/case/all/category/strategiya"
    }
  ],
  "cases": [
    {
      "href": "https://serenity.agency/case/all/miramarhome",
      "description": "Разработка лендинга и комплексное продвижение для европейского девелопера элитного жилья",
      "tags": [
        "Продвижение",
        "Сайт",
        "Стратегия"
      ],
      "tagCodes": [
        "pr",
        "sites",
        "strategiya"
      ],
      "linkClass": "dark-text",
      "isResource": false,
      "media": {
        "kind": "picture",
        "image": "/_sa/img/case/wFdMdff7Tb1Bk1adDHVWJJksdwcEpILSQVYFPdhI.jpg"
      }
    }
  ]
}